{
  "swagger": "2.0",
  "info": {
    "version": "0.0.1",
    "title": "DLF-FMS"
  },
  "basePath": "/dlf-fms/api/v0/",
  "schemes": [
    "http",
    "https"
  ],
  "consumes": [
    "application/json",
    "application/x-www-form-urlencoded",
    "multipart/form-data"
  ],
  "produces": [
    "application/json"
  ],
  "tags": [
    {
      "name": "user",
      "description": "User Apis"
    },
    {
      "name":"customer",
      "description":"process apis"
    },
    {
      "name": "master",
      "description": "master record related actions"
    }
  ],
  "paths": {
    "/user/send-login-otp": {
      "post": {
        "tags": [
          "user"
        ],
        "description": "For sending email otp",
        "consumes": [
          "application/x-www-form-urlencoded"
        ],
        "parameters": [
          {
            "name": "email",
            "in": "formData",
            "description": "email id",
            "required": true,
            "type": "string",
            "default":"prashant.rai@polestarllp.com"
          }
        ],
        "responses": {}
      }
    }
  
    
  } 
}


